%YAML 1.1
%TAG !u! tag:unity3d.com,2011:
--- !u!1045 &1
EditorBuildSettings:
  m_ObjectHideFlags: 0
  serializedVersion: 2
  m_Scenes:
  - enabled: 1
    path: Assets/Scenes/MainMenu.unity
    guid: a26d4963ec0c7cf4dacf5c5b8d13248f
  - enabled: 1
    path: Assets/Scenes/FabLevel.unity
    guid: 439059285ae44494880b7039ce85162b
